MP 2
…
## # A tibble: 1 x 18
##   cand_id cand_name cand_party_affi cand_office_sta cmte_id cmte_name
##   <chr>   <chr>     <chr>            <chr>            <chr>   <chr>    
## 1 H8WA07 MCDERMOT DEM              WA               C00223 FRIENDS 
## #  with 12 more variables: tres_name <chr>, cmte_st1 <chr>,
## #   cmte_st2 <chr>, cmte_city <chr>, cmte_state <chr>, cmte_zip <int>,
## #   cmte_dsgn <chr>, cmte_type <chr>, cmte_party_affiliation <chr>,
## #   cmte_filing_freq <chr>, org_type <chr>, connected_org_name <chr>

new_table <- inner_join(candidates, contributions, by= "cand_id")
new_table

## # A tibble: 393,339 x 36
##    cand_id cand_name cand_party_affi cand_election_yr cand_office_sta
##    <chr>   <chr>     <chr>                       <int> <chr>           
##  1 H0AK00 CRAWFORD DEM                          2010 AK              
##  2 H0AL02 ROBY, MA REP                          2012 AL              
##  3 H0AL02 ROBY, MA REP                          2012 AL              
##  4 H0AL02 ROBY, MA REP                          2012 AL              
##  5 H0AL02 ROBY, MA REP                          2012 AL              
##  6 H0AL02 ROBY, MA REP                          2012 AL              
##  7 H0AL02 ROBY, MA REP                          2012 AL              
##  8 H0AL02 ROBY, MA REP                          2012 AL              
##  9 H0AL02 ROBY, MA REP                          2012 AL              
## 10 H0AL02 ROBY, MA REP                          2012 AL              
## #  with 393,329 more rows, and 31 more variables: cand_office <chr>,
## #   cand_office_district <int>, cand_ici <chr>, cand_status <chr>,
## #   cand_pcc <chr>, cand_st1 <chr>, cand_st2 <chr>, cand_city <chr>,
## #   cand_state <chr>, cand_zip <int>, cmte_id <chr>, amndt_ind <chr>,
## #   rpt_type <chr>, transaction_pgi <chr>, image_num <chr>,
## #   transaction_type <chr>, entity_type <chr>, name <chr>, city <chr>,
## #   state <chr>, zip_code <chr>, employer <chr>, occupation <chr>,
## #   transaction_dt <chr>, transaction_amt <dbl>, other_id <chr>,
## #   tran_id <chr>, file_num <int>, memo_cd <chr>, memo_text <chr>,
## #   sub_id <dbl>

MP2_table <- inner_join(new_table, committees, by= "cand_id") %>%
  select(cand_id, cand_name, cand_party_affiliation, cand_state, cmte_name, cmte_state, connected_org_name)

new_house <- house_elections %>%
  select(fec_id, state,  incumbent, party, primary_votes) %>%
  rename(cand_id= "fec_id")
new_house 

## # A tibble: 2,178 x 5
##    cand_id   state incumbent party primary_votes
##    <chr>     <chr> <chr>     <chr>         <int>
##  1 B2CA08156 CA    FALSE     R              8801
##  2 H0AK00097 AK    FALSE     R             11179
##  3 H0AL01030 AL    FALSE     R              3854
##  4 H0AL02087 AL    TRUE      R                 0
##  5 H0AL05163 AL    TRUE      R             65163
##  6 H0AL07086 AL    TRUE      D                 0
##  7 H0AL07177 AL    FALSE     R             11537
##  8 H0AR01083 AR    TRUE      R                 0
##  9 H0AR02107 AR    TRUE      R                 0
## 10 H0AR03055 AR    TRUE      R                 0
## #  with 2,168 more rows

new_table <- inner_join(MP2_table, new_house, by= "cand_id") %>%
  group_by(cand_name)
new_table

## # A tibble: 352,731 x 11
## # Groups:   cand_name [1,063]
##    cand_id cand_name cand_party_affi cand_state cmte_name cmte_state
##    <chr>   <chr>     <chr>            <chr>      <chr>     <chr>     
##  1 H0AL02 ROBY, MA REP              AL         MARTHA R AL        
##  2 H0AL02 ROBY, MA REP              AL         LUCKY 13 VA        
##  3 H0AL02 ROBY, MA REP              AL         FRESHMAN MD        
##  4 H0AL02 ROBY, MA REP              AL         MARTHA R AL        
##  5 H0AL02 ROBY, MA REP              AL         LUCKY 13 VA        
##  6 H0AL02 ROBY, MA REP              AL         FRESHMAN MD        
##  7 H0AL02 ROBY, MA REP              AL         MARTHA R AL        
##  8 H0AL02 ROBY, MA REP              AL         LUCKY 13 VA        
##  9 H0AL02 ROBY, MA REP              AL         FRESHMAN MD        
## 10 H0AL02 ROBY, MA REP              AL         MARTHA R AL        
## #  with 352,721 more rows, and 5 more variables:
## #   connected_org_name <chr>, state <chr>, incumbent <chr>, party <chr>,
## #   primary_votes <int>

contributions <- contributions %>%
  select(cmte_id, name, state, cand_id, transaction_amt)
contributions

## # A tibble: 396,369 x 5
##    cmte_id   name                       state cand_id   transaction_amt
##    <chr>     <chr>                      <chr> <chr>               <dbl>
##  1 C00478404 KLINE FOR CONGRESS         MN    H8MN06047            2400
##  2 C00140855 TIM RYAN FOR U.S. CONGRESS DC    H2OH17109            1000
##  3 C00140855 WHITFIELD FOR CONGRESS     DC    H4KY01040            1000
##  4 C00140855 HOYER FOR CONGRESS         MD    H2MD05155            2500
##  5 C00093963 BERG FOR CONGRESS          ND    H0ND00135            1000
##  6 C00093963 DAVE CAMP FOR CONGRESS     MI    H0MI10071            5000
##  7 C00093963 KLOBUCHAR FOR MINNESOTA    MN    S6MN00267            1000
##  8 C00093963 LATHAM FOR CONGRESS        IA    H4IA05102            1000
##  9 C00093963 UPTON FOR ALL OF US        MI    H6MI04113            2500
## 10 C00035204 BENNET FOR COLORADO        CO    S0CO00211            2500
## #  with 396,359 more rows

committees %>%
  select(cmte_id, cmte_name, cmte_state, cand_id) 

## # A tibble: 14,454 x 4
##    cmte_id   cmte_name                                   cmte_state cand_id
##    <chr>     <chr>                                       <chr>      <chr>  
##  1 C00000042 ILLINOIS TOOL WORKS INC. FOR BETTER GOVERN IL         ""     
##  2 C00000059 HALLMARK CARDS PAC                          MO         ""     
##  3 C00000422 AMERICAN MEDICAL ASSOCIATION POLITICAL ACT DC         ""     
##  4 C00000489 D R I V E POLITICAL FUND CHAPTER 886        OK         ""     
##  5 C00000547 KANSAS MEDICAL SOCIETY POLITICAL ACTION CO KS         ""     
##  6 C00000638 INDIANA STATE MEDICAL ASSOCIATION POLITICA IN         ""     
##  7 C00000729 AMERICAN DENTAL ASSOCIATION POLITICAL ACTI DC         ""     
##  8 C00000885 INTERNATIONAL UNION OF PAINTERS AND ALLIED MD         ""     
##  9 C00000901 BUILD POLITICAL ACTION COMMITTEE OF THE NA DC         ""     
## 10 C00000935 DEMOCRATIC CONGRESSIONAL CAMPAIGN COMMITTEE DC         ""     
## #  with 14,444 more rows

committees

## # A tibble: 14,454 x 15
##    cmte_id cmte_name tres_name cmte_st1 cmte_st2 cmte_city cmte_state
##    <chr>   <chr>     <chr>     <chr>    <chr>    <chr>     <chr>     
##  1 C00000 ILLINOIS LYNCH, M 3600 WE ""       GLENVIEW  IL        
##  2 C00000 HALLMARK GREG SWA 2501 MC MD#288   KANSAS C MO        
##  3 C00000 AMERICAN WALKER,  25 MASS SUITE 6 WASHINGT DC        
##  4 C00000 D R I V  TOM RITT 3528 W  ""       OKLAHOMA OK        
##  5 C00000 KANSAS M C. RICHA 623 SW  ""       TOPEKA    KS        
##  6 C00000 INDIANA  KORA, M. 322 CAN ""       INDIANAP IN        
##  7 C00000 AMERICAN MCGINTY, 1111 14 SUITE 1 WASHINGT DC        
##  8 C00000 INTERNAT GALIS, G 7234 PA ""       HANOVER   MD        
##  9 C00000 BUILD PO BARNEY,  1201 15 ""       WASHINGT DC        
## 10 C00000 DEMOCRAT WARD, KE 430 SOU 2ND FLO WASHINGT DC        
## #  with 14,444 more rows, and 8 more variables: cmte_zip <int>,
## #   cmte_dsgn <chr>, cmte_type <chr>, cmte_party_affiliation <chr>,
## #   cmte_filing_freq <chr>, org_type <chr>, connected_org_name <chr>,
## #   cand_id <chr>

candidates <- candidates %>%
  select(cand_id, cand_name, cand_party_affiliation, cand_office)
candidates

## # A tibble: 5,628 x 4
##    cand_id   cand_name                    cand_party_affiliati cand_office
##    <chr>     <chr>                        <chr>                 <chr>      
##  1 H0AK00089 CRAWFORD, HARRY T JR         DEM                   H          
##  2 H0AK00097 COX, JOHN ROBERT             REP                   H          
##  3 H0AL00016 BOZEMAN, MARTHA RENEE        UNK                   H          
##  4 H0AL01030 GOUNARES, PETER HUNTER       REP                   H          
##  5 H0AL02087 ROBY, MARTHA                 REP                   H          
##  6 H0AL05049 "CRAMER, ROBERT E \"BUD\" J DEM                   H          
##  7 H0AL05155 PHILLIP, LESTER S            REP                   H          
##  8 H0AL05163 BROOKS, MO                   REP                   H          
##  9 H0AL05189 SHEPARD, TAZEWELL            DEM                   H          
## 10 H0AL05197 RABY, STEPHEN WALKER         DEM                   H          
## #  with 5,618 more rows

joined_dataset <- inner_join(committees, candidates, by= "cand_id")
joined_dataset

## # A tibble: 5,336 x 18
##    cmte_id cmte_name tres_name cmte_st1 cmte_st2 cmte_city cmte_state
##    <chr>   <chr>     <chr>     <chr>    <chr>    <chr>     <chr>     
##  1 C00002 COMMITTE HEATHER  1253 C  ""       WASHINGT DC        
##  2 C00002 JOHN D.  KALLABAT 700 13T SUITE 6 WASHINGT DC        
##  3 C00005 REGULA F REGULA,  228 S.  ""       ALEXANDR VA        
##  4 C00008 SCHROEDE VICTORIA 2000 GA ""       DENVER    CO        
##  5 C00012 ALASKANS ROBERT J 2504 FA ""       ANCHORAGE AK        
##  6 C00013 CONGRESS PADILLA, 6380 WI ""       LOS ANGE CA        
##  7 C00017 A LOT OF VIRGINIA 3242 CU ""       MISSOULA  MT        
##  8 C00019 MURTHA F ONDICK,  SUITE 1 ""       JOHNSTOWN PA        
##  9 C00020 PETE STA STARK, D P.O. BO ""       FREMONT   CA        
## 10 C00025 FRIENDS  "OPALINS 625 FAI ""       NORTH TO NY        
## #  with 5,326 more rows, and 11 more variables: cmte_zip <int>,
## #   cmte_dsgn <chr>, cmte_type <chr>, cmte_party_affiliation <chr>,
## #   cmte_filing_freq <chr>, org_type <chr>, connected_org_name <chr>,
## #   cand_id <chr>, cand_name <chr>, cand_party_affiliation <chr>,
## #   cand_office <chr>

j2_dataset <- inner_join(new_house, joined_dataset, by= "cand_id")
j2_dataset

## # A tibble: 1,920 x 22
##    cand_id state incumbent party primary_votes cmte_id cmte_name tres_name
##    <chr>   <chr> <chr>     <chr>         <int> <chr>   <chr>     <chr>    
##  1 H0AK00 AK    FALSE     R             11179 C00525 COMMITTE DAWSON S
##  2 H0AL01 AL    FALSE     R              3854 C00459 GOUNARES GOUNARES
##  3 H0AL02 AL    TRUE      R                 0 C00462 MARTHA R SLAWSON,
##  4 H0AL02 AL    TRUE      R                 0 C00492 LUCKY 13 LISA LIS
##  5 H0AL02 AL    TRUE      R                 0 C00493 FRESHMAN SPRINGER
##  6 H0AL05 AL    TRUE      R             65163 C00464 MOBROOKS BROOKS, 
##  7 H0AL05 AL    TRUE      R             65163 C00514 MAJORITY ROSE ANN
##  8 H0AL07 AL    TRUE      D                 0 C00458 TERRI SE HOSP, ED
##  9 H0AL07 AL    FALSE     R             11537 C00482 COMMITTE DONALD N
## 10 H0AR01 AR    TRUE      R                 0 C00462 CRAWFORD KNIGHT, 
## #  with 1,910 more rows, and 14 more variables: cmte_st1 <chr>,
## #   cmte_st2 <chr>, cmte_city <chr>, cmte_state <chr>, cmte_zip <int>,
## #   cmte_dsgn <chr>, cmte_type <chr>, cmte_party_affiliation <chr>,
## #   cmte_filing_freq <chr>, org_type <chr>, connected_org_name <chr>,
## #   cand_name <chr>, cand_party_affiliation <chr>, cand_office <chr>

j3_dataset <- inner_join(j2_dataset, contributions, by= "cmte_id") 
j3_dataset_total <- j3_dataset %>%
 select(cand_id.x, state.x, incumbent, party, cmte_id, cmte_name, cmte_party_affiliation, cand_party_affiliation, cand_office, state.y, transaction_amt) %>%
  group_by(cand_id.x) %>% 
summarize(total_contributions= sum(transaction_amt)) %>%
  rename(cand_id= cand_id.x)
j3_dataset_total

## # A tibble: 422 x 2
##    cand_id   total_contributions
##    <chr>                   <dbl>
##  1 H0AL02087               25100
##  2 H0AL05163                8000
##  3 H0AL07086               27500
##  4 H0AR01083               11000
##  5 H0AR02107              119249
##  6 H0AR03055               51000
##  7 H0AZ01259               12250
##  8 H0AZ03321               36301
##  9 H0CA10149                2000
## 10 H0CA15148               63732
## #  with 412 more rows

j3_dataset_state <- j3_dataset %>%
  select(state.x, cand_id.x, transaction_amt) %>%
  group_by(state.x) %>%
  mutate(state.contribution= sum(transaction_amt)) %>%
  rename("cand_id"= cand_id.x)
j3_dataset_state

## # A tibble: 7,252 x 4
## # Groups:   state.x [50]
##    state.x cand_id   transaction_amt state.contribution
##    <chr>   <chr>               <dbl>              <dbl>
##  1 AL      H0AL02087             500             156142
##  2 AL      H0AL02087             500             156142
##  3 AL      H0AL02087            1000             156142
##  4 AL      H0AL02087             500             156142
##  5 AL      H0AL02087             500             156142
##  6 AL      H0AL02087            1000             156142
##  7 AL      H0AL02087             500             156142
##  8 AL      H0AL02087             500             156142
##  9 AL      H0AL02087             500             156142
## 10 AL      H0AL02087             500             156142
## #  with 7,242 more rows

j3_dataset_final <- inner_join(j3_dataset_total, j3_dataset_state, by= "cand_id") %>%
select(-transaction_amt) %>%
  group_by(cand_id) %>%
  mutate(percentage_contrib= (total_contributions/state.contribution)*100) %>%
  summarize(meanpc = mean(percentage_contrib)) 
j3_dataset_final

## # A tibble: 422 x 2
##    cand_id   meanpc
##    <chr>      <dbl>
##  1 H0AL02087 16.1  
##  2 H0AL05163  5.12 
##  3 H0AL07086 17.6  
##  4 H0AR01083  4.26 
##  5 H0AR02107 46.2  
##  6 H0AR03055 19.7  
##  7 H0AZ01259 10.4  
##  8 H0AZ03321 30.7  
##  9 H0CA10149  0.112
## 10 H0CA15148  3.58 
## #  with 412 more rows

j3_finaldataset <- inner_join(j3_dataset_total, j3_dataset_final, by=  "cand_id")
j3_finaldataset

## # A tibble: 422 x 3
##    cand_id   total_contributions meanpc
##    <chr>                   <dbl>  <dbl>
##  1 H0AL02087               25100 16.1  
##  2 H0AL05163                8000  5.12 
##  3 H0AL07086               27500 17.6  
##  4 H0AR01083               11000  4.26 
##  5 H0AR02107              119249 46.2  
##  6 H0AR03055               51000 19.7  
##  7 H0AZ01259               12250 10.4  
##  8 H0AZ03321               36301 30.7  
##  9 H0CA10149                2000  0.112
## 10 H0CA15148               63732  3.58 
## #  with 412 more rows

final_dataset <- inner_join(j2_dataset, j3_dataset_final, by= "cand_id") %>%
  select(cand_id, state, incumbent, party, cand_office, meanpc, cmte_id) 
final_dataset

## # A tibble: 603 x 7
##    cand_id   state incumbent party cand_office meanpc cmte_id  
##    <chr>     <chr> <chr>     <chr> <chr>        <dbl> <chr>    
##  1 H0AL02087 AL    TRUE      R     H            16.1  C00462143
##  2 H0AL02087 AL    TRUE      R     H            16.1  C00492884
##  3 H0AL02087 AL    TRUE      R     H            16.1  C00493783
##  4 H0AL05163 AL    TRUE      R     H             5.12 C00464149
##  5 H0AL05163 AL    TRUE      R     H             5.12 C00514240
##  6 H0AL07086 AL    TRUE      D     H            17.6  C00458976
##  7 H0AR01083 AR    TRUE      R     H             4.26 C00462374
##  8 H0AR01083 AR    TRUE      R     H             4.26 C00506824
##  9 H0AR01083 AR    TRUE      R     H             4.26 C00511519
## 10 H0AR02107 AR    TRUE      R     H            46.2  C00468116
## #  with 593 more rows

final_dataset2  <- final_dataset %>%
  select(cand_id, state, incumbent, party, cmte_id, cand_office, meanpc) %>%
  group_by(cand_id) %>%
 summarize(number_com=  n_distinct(cmte_id))
final_dataset2

## # A tibble: 422 x 2
##    cand_id   number_com
##    <chr>          <int>
##  1 H0AL02087          3
##  2 H0AL05163          2
##  3 H0AL07086          1
##  4 H0AR01083          3
##  5 H0AR02107          2
##  6 H0AR03055          3
##  7 H0AZ01259          6
##  8 H0AZ03321          3
##  9 H0CA10149          2
## 10 H0CA15148          2
## #  with 412 more rows

final_dataset3 <- inner_join(final_dataset, final_dataset2, by= "cand_id")
final_dataset3

## # A tibble: 603 x 8
##    cand_id   state incumbent party cand_office meanpc cmte_id   number_com
##    <chr>     <chr> <chr>     <chr> <chr>        <dbl> <chr>          <int>
##  1 H0AL02087 AL    TRUE      R     H            16.1  C00462143          3
##  2 H0AL02087 AL    TRUE      R     H            16.1  C00492884          3
##  3 H0AL02087 AL    TRUE      R     H            16.1  C00493783          3
##  4 H0AL05163 AL    TRUE      R     H             5.12 C00464149          2
##  5 H0AL05163 AL    TRUE      R     H             5.12 C00514240          2
##  6 H0AL07086 AL    TRUE      D     H            17.6  C00458976          1
##  7 H0AR01083 AR    TRUE      R     H             4.26 C00462374          3
##  8 H0AR01083 AR    TRUE      R     H             4.26 C00506824          3
##  9 H0AR01083 AR    TRUE      R     H             4.26 C00511519          3
## 10 H0AR02107 AR    TRUE      R     H            46.2  C00468116          2
## #  with 593 more rows

final_dataset_new <- final_dataset2 %>%
  inner_join(j3_finaldataset, by = "cand_id") %>%
  inner_join(new_house, by = "cand_id") 
final_dataset_new

## # A tibble: 422 x 8
##    cand_id number_com total_contribut meanpc state incumbent party
##    <chr>        <int>            <dbl>  <dbl> <chr> <chr>     <chr>
##  1 H0AL02          3            25100 16.1   AL    TRUE      R    
##  2 H0AL05          2             8000  5.12  AL    TRUE      R    
##  3 H0AL07          1            27500 17.6   AL    TRUE      D    
##  4 H0AR01          3            11000  4.26  AR    TRUE      R    
##  5 H0AR02          2           119249 46.2   AR    TRUE      R    
##  6 H0AR03          3            51000 19.7   AR    TRUE      R    
##  7 H0AZ01          6            12250 10.4   AZ    TRUE      R    
##  8 H0AZ03          3            36301 30.7   AZ    FALSE     R    
##  9 H0CA10          2             2000  0.112 CA    TRUE      D    
## 10 H0CA15          2            63732  3.58  CA    TRUE      D    
## #  with 412 more rows, and 1 more variable: primary_votes <int>

library("ggthemes")

final_dataset_new <- final_dataset_new %>% 
  mutate(log_tc= log(total_contributions)) %>%
  filter(state == "CA")

## Warning in log(total_contributions): NaNs produced

final_dataset_new

## # A tibble: 53 x 9
##    cand_id number_com total_contribut meanpc state incumbent party
##    <chr>        <int>            <dbl>  <dbl> <chr> <chr>     <chr>
##  1 H0CA10          2             2000  0.112 CA    TRUE      D    
##  2 H0CA15          2            63732  3.58  CA    TRUE      D    
##  3 H0CA19          7            87403  4.91  CA    TRUE      R    
##  4 H0CA27          1             5250  0.295 CA    TRUE      D    
##  5 H0CA32          1            48000  2.70  CA    TRUE      D    
##  6 H0CA33          1            32500  1.83  CA    TRUE      D    
##  7 H0CA48          2            13603  0.764 CA    TRUE      R    
##  8 H0CA49          1             3000  0.169 CA    TRUE      D    
##  9 H2CA00          2            19750  1.11  CA    FALSE     D    
## 10 H2CA02          3            30721  1.73  CA    FALSE     R    
## #  with 43 more rows, and 2 more variables: primary_votes <int>,
## #   log_tc <dbl>
…
